kz/msd/site/oauth/repository/BlogRepository.class
kz/msd/site/oauth/entity/Admin.class
kz/msd/site/oauth/OauthApplication.class
kz/msd/site/oauth/mapper/BlogToDtoMapper.class
kz/msd/site/oauth/service/AuthService.class
kz/msd/site/oauth/utils/TextUtils.class
kz/msd/site/oauth/utils/ConflictException.class
kz/msd/site/oauth/dto/SignInDTO.class
kz/msd/site/oauth/repository/AdminRepository.class
kz/msd/site/oauth/dto/BlogDTO.class
kz/msd/site/oauth/utils/ExceptionResponseBase.class
kz/msd/site/oauth/entity/Blog$BlogBuilder.class
kz/msd/site/oauth/controller/AdminController.class
kz/msd/site/oauth/entity/Blog.class
kz/msd/site/oauth/entity/Admin$AdminBuilder.class
kz/msd/site/oauth/service/BlogService.class
